%YAML 1.1
%TAG !u! tag:unity3d.com,2011:
--- !u!114 &11400000
MonoBehaviour:
  m_ObjectHideFlags: 0
  m_CorrespondingSourceObject: {fileID: 0}
  m_PrefabInstance: {fileID: 0}
  m_PrefabAsset: {fileID: 0}
  m_GameObject: {fileID: 0}
  m_Enabled: 1
  m_EditorHideFlags: 0
  m_Script: {fileID: 11500000, guid: 4a1bb3f9ed40e1e49b2fa6bf49ca728a, type: 3}
  m_Name: Mandrake Soup
  m_EditorClassIdentifier: 
  Id: 3
  Name: Mandrake Soup
  Description: 
  Rarity: Common
  Weight: 0.1
  Cost: 50
  Icon: {fileID: 1312053751, guid: 013c9688be9b3674dbb38d6bad85d382, type: 3}
  Type: 2
  Amount: 10
  Duration: 0
  Effect: 0
