%YAML 1.1
%TAG !u! tag:unity3d.com,2011:
--- !u!114 &11400000
MonoBehaviour:
  m_ObjectHideFlags: 0
  m_CorrespondingSourceObject: {fileID: 0}
  m_PrefabInstance: {fileID: 0}
  m_PrefabAsset: {fileID: 0}
  m_GameObject: {fileID: 0}
  m_Enabled: 1
  m_EditorHideFlags: 0
  m_Script: {fileID: 11500000, guid: 9698d4adfb4228744a9a18b7f57565a3, type: 3}
  m_Name: Woodcutter Axe
  m_EditorClassIdentifier: 
  Id: 0
  Name: Woodcutter Axe
  Description: 
  Rarity: Common
  Weight: 5
  Cost: 100
  Icon: {fileID: 503323878, guid: 013c9688be9b3674dbb38d6bad85d382, type: 3}
  Type: 0
  Damage: 10
  Speed: 1
  Range: 1
